^C:\USERS\USER-PC\SOURCE\REPOS\HW_19_ABSTRACTCLASSES_VIRTUALPRIVATE\HW_19_ABSTRACTCLASSES_VIRTUALPRIVATE.CPP
C:\USERS\USER-PC\SOURCE\REPOS\HW_19_ABSTRACTCLASSES_VIRTUALPRIVATE\X64\DEBUG\VC143.PDB
C:\USERS\USER-PC\SOURCE\REPOS\HW_19_ABSTRACTCLASSES_VIRTUALPRIVATE\X64\DEBUG\VC143.IDB
C:\USERS\USER-PC\SOURCE\REPOS\HW_19_ABSTRACTCLASSES_VIRTUALPRIVATE\X64\DEBUG\HW_19_ABSTRACTCLASSES_VIRTUALPRIVATE.OBJ
